<svg width="160" height="25" viewBox="0 0 160 25" fill="none" xmlns="http://www.w3.org/2000/svg">
<path d="M23.3737 7.74818H28.41L25.8273 24.0194H20.791L23.3737 7.74818ZM24.0839 2.25989C24.1485 1.80791 24.4713 1.48507 24.9233 1.48507H28.7328C29.1848 1.48507 29.3785 1.80791 29.314 2.25989L28.862 5.35916C28.7974 5.81114 28.4746 6.06941 28.0872 6.06941H24.2776C23.8257 6.06941 23.632 5.81114 23.6965 5.35916L24.0839 2.25989ZM38.2889 7.48991C32.7361 7.48991 30.4762 8.84584 29.4431 15.4964C28.5391 21.3075 30.1533 24.1485 35.7708 24.1485C41.5173 24.1485 43.519 22.728 44.4875 16.6586C45.456 10.3955 43.8418 7.48991 38.2889 7.48991ZM39.4512 16.0775C38.8055 19.9516 38.3535 20.2744 36.2873 20.2744C34.3503 20.2744 33.8337 19.8224 34.4794 16.0775C35.1251 12.0743 35.5125 11.364 37.7078 11.364C39.8386 11.364 40.0323 12.1388 39.4512 16.0775ZM43.6481 1.54964H60.6295L59.9193 6.13398H53.8499L51.0089 24.0194H45.9726L48.8136 6.13398H42.9379L43.6481 1.54964ZM69.9274 11.9451C70.1211 8.13559 66.7635 7.23164 63.3414 7.23164C57.3366 7.29621 55.9806 9.36239 55.0121 14.3987C53.9144 20.339 55.2058 23.8257 59.1445 24.0839C62.8894 24.3422 65.5367 23.9548 67.9257 23.18L68.5714 19.6287C66.8281 19.9516 63.9225 20.2098 62.2437 20.1453C60.0484 20.1453 59.4673 19.6933 59.7901 17.6917C60.8878 18.1437 69.5399 19.6287 69.9274 11.9451ZM62.954 11.1703C64.3099 11.1703 64.9556 11.4931 64.7619 12.7845C64.3099 15.3027 60.1776 14.4633 60.1776 14.4633C60.5004 12.7199 60.7587 11.2349 62.954 11.1703ZM77.5464 7.42534C79.1606 7.42534 82.7764 7.68362 85.1009 8.45843L84.6489 11.4931C84.6489 11.4931 82.2599 11.2994 79.4835 11.2994C77.4818 11.2994 76.6424 11.4286 75.9322 15.8838C75.2865 19.8224 75.9322 20.2744 78.063 20.2744C80.904 20.2744 83.4867 20.0161 83.4867 20.0161L83.0347 23.0508C80.7103 23.9548 78.7086 24.2131 75.0282 24.1485C71.9935 24.1485 69.8628 21.4366 70.8959 15.1735C71.9935 8.45843 74.5117 7.42534 77.5464 7.42534ZM88.4584 0H93.4948L92.0097 9.36239C93.301 8.45843 94.7215 7.42534 97.2397 7.42534C101.243 7.42534 101.63 10.0726 101.114 13.301L99.435 23.9548H94.3987L96.0775 13.2365C96.3358 11.7514 95.8838 11.2994 94.9798 11.2994C93.4948 11.2994 92.5908 11.6868 91.6223 12.5908L89.8144 23.9548H84.6489L88.4584 0ZM154.641 1.54964H156.836V1.87248H155.868V4.51977H155.545V1.87248H154.641V1.54964ZM157.224 1.54964H157.676L158.515 4.00323L159.29 1.54964H159.742L160 4.51977H159.677L159.483 2.13075L158.709 4.51977H158.386L157.546 2.13075L157.353 4.51977H157.03L157.224 1.54964ZM105.569 1.54964H108.41L106.344 14.7215C105.504 20.1453 106.796 21.5012 110.412 21.5012C114.221 21.5012 116.029 19.7579 116.868 14.7215L118.935 1.54964H121.776L119.709 14.8507C118.87 20.0807 117.062 24.2776 110.089 24.2776C105.182 24.2776 102.276 21.8886 103.438 14.5924L105.569 1.54964ZM121.84 21.2429C123.132 21.4366 126.554 21.5658 129.459 21.5658C130.751 21.5658 133.14 21.3721 133.527 19.0476L133.85 17.1751C134.108 15.5609 134.044 14.3987 131.848 14.3987H127.91C122.938 14.3987 122.809 11.1057 123.196 8.91041L123.519 6.77966C124.294 2.06618 127.135 1.2268 130.492 1.35593C132.559 1.4205 136.497 1.80791 138.241 2.13075L137.918 4.39064C136.303 4.39064 130.686 4.13236 130.363 4.13236C128.103 4.00323 126.747 4.32607 126.36 7.03793L126.102 8.78127C125.65 11.6868 127.006 11.5577 128.62 11.5577H132.559C136.497 11.5577 137.078 14.5278 136.691 17.046L136.368 19.1122C135.722 23.9548 131.848 24.2776 129.266 24.2776C126.618 24.2776 122.938 23.8257 121.582 23.5028L121.84 21.2429ZM151.412 1.54964H148.442L136.755 24.1485H139.855L142.954 18.2082H151.606L152.704 24.1485H155.609L151.412 1.54964ZM144.31 15.4964L149.411 5.42373L151.154 15.4964H144.31ZM11.6868 24.0194C16.4003 24.0194 18.8539 23.2446 19.5642 17.95C19.9516 14.9153 18.6602 12.6554 16.7232 12.3325C18.8539 12.0743 20.339 10.2663 20.6618 8.07102C21.1784 4.58434 19.8224 1.54964 15.109 1.54964H3.61582L2.90557 5.87571H14.0759C15.0444 5.87571 15.8838 6.32768 15.6255 8.07102C15.4318 9.36239 14.657 10.2018 13.3656 10.2018H6.52139H2.19532L1.54964 14.3341L0.71025 19.6933L0 24.0194H4.32607H11.6868ZM5.87571 14.3341H12.9782C14.5278 14.3341 14.8507 15.6255 14.5924 17.046C14.2696 18.983 13.3656 19.6933 12.1388 19.6933H5.03632L5.87571 14.3341Z" fill="#36474E"/>
</svg>
